INDEX VERSION 1.131+C:\Users\ITSLazicI\ipma-group-back-and-front\spring-api\.metadata\.plugins\org.eclipse.jdt.core
1414303560.index
2755903330.index
3239571986.index
2922152020.index
2716442907.index
3271193799.index
2301411667.index
206275905.index
2486717703.index
1766173132.index
2582597020.index
3470252815.index
649726629.index
3726264120.index
361167425.index
1246156036.index
1929289113.index
2097756811.index
370257298.index
2103324719.index
4131063851.index
3201491468.index
479327378.index
1769272471.index
3514749407.index
4088016422.index
757363329.index
1885474372.index
1588812068.index
1647385475.index
1710524955.index
2679270789.index
3682165525.index
112138936.index
2847132643.index
3270131501.index
1292307103.index
391891641.index
3586337150.index
3688519446.index
2615873355.index
1619305541.index
1498606048.index
3100477054.index
678387149.index
1407441633.index
3275999813.index
324858573.index
1366931959.index
3954109754.index
528215622.index
3167413132.index
1886555158.index
3644642907.index
1453939682.index
3788873319.index
1510314929.index
1034206979.index
2034116569.index
1577205820.index
1041376017.index
1958600522.index
1303312334.index
56506541.index
3260313447.index
1927192918.index
2464878580.index
996391388.index
2932356828.index
740845937.index
562806514.index
3393790779.index
1177346532.index
1623271869.index
2257963424.index
4035749507.index
2358005576.index
802614849.index
1779547696.index
2673596088.index
453317364.index
3734168597.index
981541937.index
3020011833.index
2335162505.index
148209719.index
2203209591.index
1559898075.index
2731551545.index
986005807.index
1858459515.index
3893985162.index
1839759338.index
2508146676.index
2879953806.index
4105674597.index
337980598.index
1720362900.index
3023467303.index
2102986896.index
3496573868.index
1175846368.index
76426036.index
2544739662.index
2621063975.index
1125158383.index
4051500072.index
2590900268.index
2008842370.index
720810263.index
2342836714.index
2970263424.index
3989245293.index
2511532875.index
3261529431.index
3324844997.index
2568430500.index
1703952968.index
2792406737.index
927673245.index
640197322.index
3604321619.index
3193380416.index
3069967172.index
3181385395.index
4082846598.index
1927551681.index
2969722501.index
1470380975.index
1736625840.index
4129078983.index
2829515984.index
1471818202.index
2897073263.index
2036262181.index
3819285128.index
3711783763.index
3724990627.index
2759824549.index
3023981294.index
3336439202.index
2987990592.index
1828327090.index
109535065.index
1175292225.index
2032206552.index
492121875.index
1619537600.index
2117476141.index
3534671487.index
3863583852.index
